\relax 
\@writefile{toc}{\contentsline {section}{\numberline {1}Introduction}{1}}
\@writefile{toc}{\contentsline {section}{\numberline {2}Inverse Problems}{2}}
\@writefile{toc}{\contentsline {subsection}{\numberline {2.1}Characteristic}{2}}
\@writefile{toc}{\contentsline {subsection}{\numberline {2.2}Source of Uncertainties}{2}}
\@writefile{toc}{\contentsline {subsection}{\numberline {2.3}Problem Definition}{2}}
\@writefile{toc}{\contentsline {section}{\numberline {3}Bayesian Reference}{2}}
\@writefile{toc}{\contentsline {subsection}{\numberline {3.1}Definition}{2}}
\@writefile{toc}{\contentsline {subsection}{\numberline {3.2}Regularisation Term}{2}}
\@writefile{toc}{\contentsline {section}{\numberline {4}Low-Rank Approximation}{2}}
\@writefile{toc}{\contentsline {subsection}{\numberline {4.1}Truncating Eigenvalues}{2}}
\@writefile{toc}{\contentsline {subsection}{\numberline {4.2}Krylov Subspace Methods}{2}}
\@writefile{toc}{\contentsline {section}{\numberline {5}Confirmation Model}{2}}
\@writefile{toc}{\contentsline {subsection}{\numberline {5.1}Problem Definition}{2}}
\@writefile{toc}{\contentsline {subsection}{\numberline {5.2}Solution and Discussion}{2}}
\@writefile{toc}{\contentsline {section}{\numberline {6}Discussion}{2}}
\@writefile{toc}{\contentsline {section}{\numberline {7}Conclusion}{2}}
\bibstyle{unsrt}
\bibdata{tmr_ref.bib}
